<mxfile host="app.diagrams.net" modified="2024-01-21T15:08:19.687Z" agent="Mozilla/5.0 (X11; Linux x86_64; rv:120.0) Gecko/20100101 Firefox/120.0" etag="loXNwNPrxyDm-bV2S9c3" version="22.1.21" type="device">
  <diagram id="C5RBs43oDa-KdzZeNtuy" name="Page-1">
    <mxGraphModel dx="3084" dy="753" grid="1" gridSize="10" guides="1" tooltips="1" connect="1" arrows="1" fold="1" page="1" pageScale="1" pageWidth="827" pageHeight="1169" math="0" shadow="0">
      <root>
        <mxCell id="WIyWlLk6GJQsqaUBKTNV-0" />
        <mxCell id="WIyWlLk6GJQsqaUBKTNV-1" parent="WIyWlLk6GJQsqaUBKTNV-0" />
        <mxCell id="yis5uXQec1j8Oe6C6VQU-6" style="edgeStyle=orthogonalEdgeStyle;rounded=0;orthogonalLoop=1;jettySize=auto;html=1;" parent="WIyWlLk6GJQsqaUBKTNV-1" source="yis5uXQec1j8Oe6C6VQU-0" target="yis5uXQec1j8Oe6C6VQU-2" edge="1">
          <mxGeometry relative="1" as="geometry">
            <Array as="points">
              <mxPoint x="65" y="270" />
              <mxPoint x="65" y="270" />
            </Array>
          </mxGeometry>
        </mxCell>
        <mxCell id="yis5uXQec1j8Oe6C6VQU-8" style="edgeStyle=orthogonalEdgeStyle;rounded=0;orthogonalLoop=1;jettySize=auto;html=1;" parent="WIyWlLk6GJQsqaUBKTNV-1" source="yis5uXQec1j8Oe6C6VQU-0" target="yis5uXQec1j8Oe6C6VQU-7" edge="1">
          <mxGeometry relative="1" as="geometry">
            <Array as="points">
              <mxPoint x="65" y="280" />
              <mxPoint x="-85" y="280" />
            </Array>
          </mxGeometry>
        </mxCell>
        <mxCell id="yis5uXQec1j8Oe6C6VQU-15" style="edgeStyle=orthogonalEdgeStyle;rounded=0;orthogonalLoop=1;jettySize=auto;html=1;" parent="WIyWlLk6GJQsqaUBKTNV-1" source="yis5uXQec1j8Oe6C6VQU-0" target="yis5uXQec1j8Oe6C6VQU-14" edge="1">
          <mxGeometry relative="1" as="geometry">
            <Array as="points">
              <mxPoint x="210" y="170" />
            </Array>
          </mxGeometry>
        </mxCell>
        <mxCell id="yis5uXQec1j8Oe6C6VQU-0" value="&lt;div&gt;Node&lt;/div&gt;" style="html=1;fillColor=#dae8fc;strokeColor=#6c8ebf;" parent="WIyWlLk6GJQsqaUBKTNV-1" vertex="1">
          <mxGeometry x="10" y="150" width="110" height="50" as="geometry" />
        </mxCell>
        <mxCell id="yis5uXQec1j8Oe6C6VQU-1" value="&lt;div&gt;Scene&lt;/div&gt;&lt;div&gt;&lt;br&gt;&lt;/div&gt;" style="html=1;fillColor=#f8cecc;strokeColor=#b85450;" parent="WIyWlLk6GJQsqaUBKTNV-1" vertex="1">
          <mxGeometry x="-170" y="150" width="110" height="50" as="geometry" />
        </mxCell>
        <mxCell id="yis5uXQec1j8Oe6C6VQU-5" style="edgeStyle=orthogonalEdgeStyle;rounded=0;orthogonalLoop=1;jettySize=auto;html=1;" parent="WIyWlLk6GJQsqaUBKTNV-1" source="yis5uXQec1j8Oe6C6VQU-2" target="yis5uXQec1j8Oe6C6VQU-3" edge="1">
          <mxGeometry relative="1" as="geometry" />
        </mxCell>
        <mxCell id="yis5uXQec1j8Oe6C6VQU-2" value="&lt;div&gt;TileMap&lt;/div&gt;" style="html=1;" parent="WIyWlLk6GJQsqaUBKTNV-1" vertex="1">
          <mxGeometry x="10" y="340" width="110" height="50" as="geometry" />
        </mxCell>
        <mxCell id="yis5uXQec1j8Oe6C6VQU-3" value="&lt;div&gt;IsoTilemap&lt;/div&gt;" style="html=1;" parent="WIyWlLk6GJQsqaUBKTNV-1" vertex="1">
          <mxGeometry x="10" y="470" width="110" height="50" as="geometry" />
        </mxCell>
        <mxCell id="yis5uXQec1j8Oe6C6VQU-7" value="&lt;div&gt;Tile&lt;/div&gt;" style="html=1;" parent="WIyWlLk6GJQsqaUBKTNV-1" vertex="1">
          <mxGeometry x="-140" y="375" width="110" height="50" as="geometry" />
        </mxCell>
        <mxCell id="yis5uXQec1j8Oe6C6VQU-14" value="AnimatedSprite" style="html=1;" parent="WIyWlLk6GJQsqaUBKTNV-1" vertex="1">
          <mxGeometry x="160" y="340" width="110" height="50" as="geometry" />
        </mxCell>
        <mxCell id="I1MZ-BYZlHXxhPMIIpeX-3" value="" style="edgeStyle=orthogonalEdgeStyle;rounded=0;orthogonalLoop=1;jettySize=auto;html=1;" parent="WIyWlLk6GJQsqaUBKTNV-1" source="I1MZ-BYZlHXxhPMIIpeX-0" target="I1MZ-BYZlHXxhPMIIpeX-2" edge="1">
          <mxGeometry relative="1" as="geometry" />
        </mxCell>
        <mxCell id="uXBPVbUrSPKfdR41DEqN-3" value="" style="edgeStyle=orthogonalEdgeStyle;rounded=0;orthogonalLoop=1;jettySize=auto;html=1;" edge="1" parent="WIyWlLk6GJQsqaUBKTNV-1" source="I1MZ-BYZlHXxhPMIIpeX-0" target="uXBPVbUrSPKfdR41DEqN-0">
          <mxGeometry relative="1" as="geometry" />
        </mxCell>
        <mxCell id="I1MZ-BYZlHXxhPMIIpeX-0" value="&lt;div&gt;&amp;nbsp;ui::BoxWidget&lt;/div&gt;" style="rounded=0;whiteSpace=wrap;html=1;" parent="WIyWlLk6GJQsqaUBKTNV-1" vertex="1">
          <mxGeometry x="-813" y="350" width="120" height="60" as="geometry" />
        </mxCell>
        <mxCell id="I1MZ-BYZlHXxhPMIIpeX-2" value="&lt;div&gt;ui::Button&lt;/div&gt;" style="rounded=0;whiteSpace=wrap;html=1;" parent="WIyWlLk6GJQsqaUBKTNV-1" vertex="1">
          <mxGeometry x="-993" y="500" width="120" height="60" as="geometry" />
        </mxCell>
        <mxCell id="uXBPVbUrSPKfdR41DEqN-0" value="&lt;div&gt;ui::CheckBox&lt;/div&gt;" style="rounded=0;whiteSpace=wrap;html=1;" vertex="1" parent="WIyWlLk6GJQsqaUBKTNV-1">
          <mxGeometry x="-813" y="500" width="120" height="60" as="geometry" />
        </mxCell>
        <mxCell id="uXBPVbUrSPKfdR41DEqN-4" value="&lt;div&gt;ui::UI&lt;/div&gt;&lt;div&gt;(ui_manager)&lt;br&gt;&lt;/div&gt;" style="rounded=0;whiteSpace=wrap;html=1;fillColor=#f8cecc;strokeColor=#b85450;" vertex="1" parent="WIyWlLk6GJQsqaUBKTNV-1">
          <mxGeometry x="-670" y="50" width="120" height="60" as="geometry" />
        </mxCell>
        <mxCell id="uXBPVbUrSPKfdR41DEqN-5" value="&lt;div&gt;ui::UIWindow&lt;/div&gt;" style="rounded=0;whiteSpace=wrap;html=1;fillColor=#f8cecc;strokeColor=#b85450;" vertex="1" parent="WIyWlLk6GJQsqaUBKTNV-1">
          <mxGeometry x="-500" y="50" width="120" height="60" as="geometry" />
        </mxCell>
        <mxCell id="uXBPVbUrSPKfdR41DEqN-7" style="edgeStyle=orthogonalEdgeStyle;rounded=0;orthogonalLoop=1;jettySize=auto;html=1;" edge="1" parent="WIyWlLk6GJQsqaUBKTNV-1" source="uXBPVbUrSPKfdR41DEqN-6" target="I1MZ-BYZlHXxhPMIIpeX-0">
          <mxGeometry relative="1" as="geometry" />
        </mxCell>
        <mxCell id="uXBPVbUrSPKfdR41DEqN-9" value="" style="edgeStyle=orthogonalEdgeStyle;rounded=0;orthogonalLoop=1;jettySize=auto;html=1;" edge="1" parent="WIyWlLk6GJQsqaUBKTNV-1" source="uXBPVbUrSPKfdR41DEqN-6" target="uXBPVbUrSPKfdR41DEqN-8">
          <mxGeometry relative="1" as="geometry" />
        </mxCell>
        <mxCell id="uXBPVbUrSPKfdR41DEqN-11" style="edgeStyle=orthogonalEdgeStyle;rounded=0;orthogonalLoop=1;jettySize=auto;html=1;" edge="1" parent="WIyWlLk6GJQsqaUBKTNV-1" source="uXBPVbUrSPKfdR41DEqN-6" target="uXBPVbUrSPKfdR41DEqN-10">
          <mxGeometry relative="1" as="geometry" />
        </mxCell>
        <mxCell id="uXBPVbUrSPKfdR41DEqN-6" value="&lt;div&gt;ui::UIWidget&lt;/div&gt;" style="rounded=0;whiteSpace=wrap;html=1;fillColor=#dae8fc;strokeColor=#6c8ebf;" vertex="1" parent="WIyWlLk6GJQsqaUBKTNV-1">
          <mxGeometry x="-673" y="190" width="120" height="60" as="geometry" />
        </mxCell>
        <mxCell id="uXBPVbUrSPKfdR41DEqN-8" value="&lt;div&gt;ui::Label&lt;/div&gt;" style="rounded=0;whiteSpace=wrap;html=1;" vertex="1" parent="WIyWlLk6GJQsqaUBKTNV-1">
          <mxGeometry x="-673" y="350" width="120" height="60" as="geometry" />
        </mxCell>
        <mxCell id="uXBPVbUrSPKfdR41DEqN-10" value="ui::Image" style="rounded=0;whiteSpace=wrap;html=1;" vertex="1" parent="WIyWlLk6GJQsqaUBKTNV-1">
          <mxGeometry x="-533" y="350" width="120" height="60" as="geometry" />
        </mxCell>
        <mxCell id="uXBPVbUrSPKfdR41DEqN-12" value="ResLoader" style="rounded=0;whiteSpace=wrap;html=1;fillColor=#f8cecc;strokeColor=#b85450;" vertex="1" parent="WIyWlLk6GJQsqaUBKTNV-1">
          <mxGeometry x="-340" y="145" width="120" height="60" as="geometry" />
        </mxCell>
        <mxCell id="uXBPVbUrSPKfdR41DEqN-13" value="&lt;div&gt;Texture&lt;/div&gt;" style="rounded=0;whiteSpace=wrap;html=1;" vertex="1" parent="WIyWlLk6GJQsqaUBKTNV-1">
          <mxGeometry x="-340" y="427.5" width="120" height="60" as="geometry" />
        </mxCell>
        <mxCell id="uXBPVbUrSPKfdR41DEqN-16" style="edgeStyle=orthogonalEdgeStyle;rounded=0;orthogonalLoop=1;jettySize=auto;html=1;" edge="1" parent="WIyWlLk6GJQsqaUBKTNV-1" source="uXBPVbUrSPKfdR41DEqN-15" target="uXBPVbUrSPKfdR41DEqN-13">
          <mxGeometry relative="1" as="geometry" />
        </mxCell>
        <mxCell id="uXBPVbUrSPKfdR41DEqN-15" value="Resource" style="rounded=0;whiteSpace=wrap;html=1;fillColor=#dae8fc;strokeColor=#6c8ebf;" vertex="1" parent="WIyWlLk6GJQsqaUBKTNV-1">
          <mxGeometry x="-340" y="242.5" width="120" height="60" as="geometry" />
        </mxCell>
      </root>
    </mxGraphModel>
  </diagram>
</mxfile>
